[2020-02-03 16:45:23] [__main__] INFO    : Start Service at port: 4000
[2020-02-03 16:45:37] [__main__] INFO    : Start Service at port: 4000
[2020-02-03 16:46:24] [__main__] INFO    : file.filename: testing_1.xlsx
[2020-02-03 16:47:20] [__main__] INFO    : Start Service at port: 4000
[2020-02-03 16:47:53] [__main__] INFO    : file.filename: testing_1.xlsx
[2020-02-03 16:52:18] [__main__] INFO    : Start Service at port: 4000
[2020-02-03 16:54:22] [__main__] INFO    : Start Service at port: 4000
[2020-02-03 16:54:42] [__main__] ERROR   : No file selected for uploading
[2020-02-03 16:54:43] [__main__] ERROR   : No file selected for uploading
[2020-02-03 16:54:46] [__main__] ERROR   : No file selected for uploading
[2020-02-03 16:55:08] [__main__] INFO    : Start Service at port: 4000
[2020-02-03 16:55:36] [__main__] INFO    : file.filename: input_set_1.json
[2020-02-03 17:05:00] [__main__] INFO    : Start Service at port: 4000
[2020-02-03 17:05:04] [__main__] ERROR   : name 'get_names' is not defined
[2020-02-03 17:05:56] [__main__] INFO    : Start Service at port: 4000
[2020-02-03 17:05:58] [__main__] ERROR   : stat: path should be string, bytes, os.PathLike or integer, not list
[2020-02-03 17:06:18] [__main__] INFO    : Start Service at port: 4000
[2020-02-03 17:06:20] [__main__] INFO    : file.filename: input_set_1.json
[2020-02-03 17:11:28] [__main__] INFO    : Start Service at port: 4000
[2020-02-03 17:11:34] [__main__] INFO    : file.filename: input_set_1.json
[2020-02-03 17:12:44] [__main__] INFO    : file.filename: input_set_1.json
[2020-02-03 17:13:24] [__main__] INFO    : file.filename: input_set_1.json
[2020-02-03 17:13:55] [__main__] INFO    : Start Service at port: 4000
[2020-02-03 17:13:59] [__main__] ERROR   : name 'dirName' is not defined
[2020-02-03 17:14:10] [__main__] INFO    : Start Service at port: 4000
[2020-02-03 17:14:13] [__main__] INFO    : file.filename: input_set_1.json
[2020-02-03 17:14:15] [__main__] INFO    : file.filename: input_set_1.json
[2020-02-03 17:14:16] [__main__] INFO    : file.filename: input_set_1.json
[2020-02-03 17:16:06] [__main__] INFO    : Start Service at port: 4000
[2020-02-03 17:16:09] [__main__] ERROR   : ('Directory ', 'testing_1', ' already exists')
[2020-02-03 17:16:43] [__main__] INFO    : Start Service at port: 4000
[2020-02-03 17:16:45] [__main__] ERROR   : Directory testing_1 already exists
[2020-02-03 17:17:01] [__main__] INFO    : Start Service at port: 4000
[2020-02-03 17:17:04] [__main__] ERROR   : Directory "testing_1" already exists
[2020-02-03 17:17:09] [__main__] ERROR   : Directory "testing_1" already exists
[2020-02-03 17:17:42] [__main__] INFO    : Start Service at port: 4000
[2020-02-03 17:17:44] [__main__] ERROR   : Directory "testing_1" already exists
[2020-02-03 17:17:45] [__main__] ERROR   : Directory "testing_1" already exists
[2020-02-03 17:17:46] [__main__] ERROR   : Directory "testing_1" already exists
[2020-02-03 17:18:02] [__main__] INFO    : Start Service at port: 4000
[2020-02-03 17:18:04] [__main__] ERROR   : Directory "\testing_1" already exists
[2020-02-03 17:18:32] [__main__] INFO    : Start Service at port: 4000
[2020-02-03 17:18:34] [__main__] ERROR   : Directory /testing_1 already exists
[2020-02-03 17:18:56] [__main__] INFO    : Start Service at port: 4000
[2020-02-03 17:18:59] [__main__] ERROR   : Directory /testing_1 already exists
[2020-02-03 17:19:13] [__main__] INFO    : Start Service at port: 4000
[2020-02-03 17:19:15] [__main__] ERROR   : Directory /testing_1 already exists
[2020-02-03 17:19:17] [__main__] ERROR   : Directory /testing_1 already exists
[2020-02-03 17:19:21] [__main__] INFO    : file.filename: input_set_1.json
[2020-02-03 18:13:50] [__main__] INFO    : Start Service at port: 4000
[2020-02-03 18:14:03] [jieba   ] DEBUG   : Building prefix dict from the default dictionary ...
[2020-02-03 18:14:03] [jieba   ] DEBUG   : Loading model from cache /var/folders/f5/t17jyxx977sc4_bqmtyncfq00000gn/T/jieba.cache
[2020-02-03 18:14:37] [jieba   ] DEBUG   : Building prefix dict from the default dictionary ...
[2020-02-03 18:14:37] [jieba   ] DEBUG   : Loading model from cache /var/folders/f5/t17jyxx977sc4_bqmtyncfq00000gn/T/jieba.cache
[2020-02-03 18:14:38] [jieba   ] DEBUG   : Loading model cost 0.627 seconds.
[2020-02-03 18:14:38] [jieba   ] DEBUG   : Prefix dict has been built successfully.
[2020-02-03 18:33:25] [jieba   ] DEBUG   : Building prefix dict from the default dictionary ...
[2020-02-03 18:33:25] [jieba   ] DEBUG   : Loading model from cache /var/folders/f5/t17jyxx977sc4_bqmtyncfq00000gn/T/jieba.cache
[2020-02-03 18:33:25] [jieba   ] DEBUG   : Loading model cost 0.600 seconds.
[2020-02-03 18:33:25] [jieba   ] DEBUG   : Prefix dict has been built successfully.
[2020-02-03 19:07:53] [jieba   ] DEBUG   : Building prefix dict from the default dictionary ...
[2020-02-03 19:07:53] [jieba   ] DEBUG   : Loading model from cache /var/folders/f5/t17jyxx977sc4_bqmtyncfq00000gn/T/jieba.cache
[2020-02-03 19:07:53] [jieba   ] DEBUG   : Loading model cost 0.623 seconds.
[2020-02-03 19:07:53] [jieba   ] DEBUG   : Prefix dict has been built successfully.
[2020-02-03 19:10:19] [jieba   ] DEBUG   : Building prefix dict from the default dictionary ...
[2020-02-03 19:10:19] [jieba   ] DEBUG   : Loading model from cache /var/folders/f5/t17jyxx977sc4_bqmtyncfq00000gn/T/jieba.cache
[2020-02-03 19:10:20] [jieba   ] DEBUG   : Loading model cost 0.642 seconds.
[2020-02-03 19:10:20] [jieba   ] DEBUG   : Prefix dict has been built successfully.
[2020-02-03 19:10:42] [tensorflow] WARNING : From /Users/kohosing/anaconda3/lib/python3.6/site-packages/tensorflow_core/python/ops/resource_variable_ops.py:1635: calling BaseResourceVariable.__init__ (from tensorflow.python.ops.resource_variable_ops) with constraint is deprecated and will be removed in a future version.
Instructions for updating:
If using Keras pass *_constraint arguments to layers.
[2020-02-03 19:10:42] [tensorflow] WARNING : From /Users/kohosing/Desktop/word_embedding/W2V.py:136: calling reduce_sum_v1 (from tensorflow.python.ops.math_ops) with keep_dims is deprecated and will be removed in a future version.
Instructions for updating:
keep_dims is deprecated, use keepdims instead
[2020-02-03 19:13:17] [jieba   ] DEBUG   : Building prefix dict from the default dictionary ...
[2020-02-03 19:13:17] [jieba   ] DEBUG   : Loading model from cache /var/folders/f5/t17jyxx977sc4_bqmtyncfq00000gn/T/jieba.cache
[2020-02-03 19:13:17] [jieba   ] DEBUG   : Loading model cost 0.601 seconds.
[2020-02-03 19:13:17] [jieba   ] DEBUG   : Prefix dict has been built successfully.
[2020-02-03 19:13:39] [tensorflow] WARNING : From /Users/kohosing/anaconda3/lib/python3.6/site-packages/tensorflow_core/python/ops/resource_variable_ops.py:1635: calling BaseResourceVariable.__init__ (from tensorflow.python.ops.resource_variable_ops) with constraint is deprecated and will be removed in a future version.
Instructions for updating:
If using Keras pass *_constraint arguments to layers.
[2020-02-03 19:13:39] [tensorflow] WARNING : From /Users/kohosing/Desktop/word_embedding/W2V.py:136: calling reduce_sum_v1 (from tensorflow.python.ops.math_ops) with keep_dims is deprecated and will be removed in a future version.
Instructions for updating:
keep_dims is deprecated, use keepdims instead
[2020-02-03 19:14:09] [__main__] INFO    : Start Service at port: 4000
[2020-02-03 19:21:12] [jieba   ] DEBUG   : Building prefix dict from the default dictionary ...
[2020-02-03 19:21:12] [jieba   ] DEBUG   : Loading model from cache /var/folders/f5/t17jyxx977sc4_bqmtyncfq00000gn/T/jieba.cache
[2020-02-03 19:21:13] [jieba   ] DEBUG   : Loading model cost 0.640 seconds.
[2020-02-03 19:21:13] [jieba   ] DEBUG   : Prefix dict has been built successfully.
[2020-02-03 19:21:34] [tensorflow] WARNING : From /Users/kohosing/anaconda3/lib/python3.6/site-packages/tensorflow_core/python/ops/resource_variable_ops.py:1635: calling BaseResourceVariable.__init__ (from tensorflow.python.ops.resource_variable_ops) with constraint is deprecated and will be removed in a future version.
Instructions for updating:
If using Keras pass *_constraint arguments to layers.
[2020-02-03 19:21:34] [tensorflow] WARNING : From /Users/kohosing/Desktop/word_embedding/W2V.py:136: calling reduce_sum_v1 (from tensorflow.python.ops.math_ops) with keep_dims is deprecated and will be removed in a future version.
Instructions for updating:
keep_dims is deprecated, use keepdims instead
[2020-02-03 19:22:03] [__main__] INFO    : Start Service at port: 4000
[2020-02-03 19:28:26] [__main__] INFO    : Start Service at port: 4000
[2020-02-03 19:28:33] [__main__] INFO    : file.filename: input_set_1.json
[2020-02-03 19:28:33] [__main__] ERROR   : list index out of range
[2020-02-03 19:29:29] [__main__] ERROR   : Directory /testing_2 already exists
[2020-02-03 19:29:34] [__main__] INFO    : file.filename: input_set_1.json
[2020-02-03 19:29:34] [__main__] INFO    : file.filename: attribute_set_1.json
[2020-02-03 19:30:46] [__main__] INFO    : Start Service at port: 4000
[2020-02-03 19:30:51] [__main__] INFO    : file.filename: input_set_1.json
[2020-02-03 19:30:51] [__main__] INFO    : file.filename: attribute_set_1.json
[2020-02-03 19:31:20] [__main__] ERROR   : Directory /testing_9 already exists
[2020-02-03 19:31:24] [__main__] INFO    : file.filename: input_set_1.json
[2020-02-03 19:31:24] [__main__] INFO    : file.filename: attribute_set_1.json
[2020-02-03 19:33:26] [__main__] INFO    : Start Service at port: 4000
[2020-02-03 19:33:35] [__main__] INFO    : file.filename: input_set_1.json
[2020-02-03 19:33:35] [__main__] INFO    : file.filename: attribute_set_1.json
[2020-02-03 19:36:27] [__main__] INFO    : Start Service at port: 4000
[2020-02-03 19:36:33] [__main__] INFO    : file.filename: input_set_1.json
[2020-02-03 19:36:33] [__main__] INFO    : file.filename: attribute_set_1.json
[2020-02-03 19:36:33] [__main__] ERROR   : list index out of range
[2020-02-03 19:36:41] [__main__] ERROR   : Directory /testing_22 already exists
[2020-02-03 19:36:45] [__main__] INFO    : file.filename: input_set_1.json
[2020-02-03 19:36:45] [__main__] INFO    : file.filename: attribute_set_1.json
[2020-02-03 19:36:45] [__main__] INFO    : file.filename: testing_1.xlsx
[2020-02-03 19:37:07] [__main__] INFO    : file.filename: input_set_1.json
[2020-02-03 19:37:07] [__main__] INFO    : file.filename: attribute_set_1.json
[2020-02-03 19:37:07] [__main__] INFO    : file.filename: input_set_1.json
[2020-02-03 19:40:44] [__main__] INFO    : Start Service at port: 4000
[2020-02-03 19:41:11] [__main__] INFO    : file.filename: stopword.txt
[2020-02-03 19:41:11] [__main__] INFO    : file.filename: test1.txt
[2020-02-03 19:41:11] [__main__] INFO    : file.filename: SIMSUN.TTC
[2020-02-03 19:41:11] [jieba   ] DEBUG   : Building prefix dict from the default dictionary ...
[2020-02-03 19:41:11] [jieba   ] DEBUG   : Loading model from cache /var/folders/f5/t17jyxx977sc4_bqmtyncfq00000gn/T/jieba.cache
[2020-02-03 19:41:12] [jieba   ] DEBUG   : Loading model cost 0.673 seconds.
[2020-02-03 19:41:12] [jieba   ] DEBUG   : Prefix dict has been built successfully.
[2020-02-03 19:41:34] [tensorflow] WARNING : From /Users/kohosing/anaconda3/lib/python3.6/site-packages/tensorflow_core/python/ops/resource_variable_ops.py:1635: calling BaseResourceVariable.__init__ (from tensorflow.python.ops.resource_variable_ops) with constraint is deprecated and will be removed in a future version.
Instructions for updating:
If using Keras pass *_constraint arguments to layers.
[2020-02-03 19:41:34] [tensorflow] WARNING : From /Users/kohosing/Desktop/word_embedding/W2V.py:136: calling reduce_sum_v1 (from tensorflow.python.ops.math_ops) with keep_dims is deprecated and will be removed in a future version.
Instructions for updating:
keep_dims is deprecated, use keepdims instead
[2020-02-03 19:43:57] [__main__] ERROR   : error: 404 Not Found: The requested URL was not found on the server. If you entered the URL manually please check your spelling and try again.
[2020-02-03 19:49:10] [__main__] INFO    : Start Service at port: 4000
[2020-02-03 19:55:01] [__main__] INFO    : Start Service at port: 4000
[2020-02-03 19:55:42] [__main__] INFO    : Start Service at port: 4000
[2020-02-03 19:56:23] [__main__] ERROR   : 'function' object has no attribute 'args'
[2020-02-03 19:57:33] [__main__] INFO    : Start Service at port: 4000
[2020-02-03 19:57:41] [__main__] ERROR   : 'function' object has no attribute 'args'
[2020-02-03 19:58:01] [__main__] ERROR   : 'function' object has no attribute 'args'
[2020-02-03 19:58:25] [__main__] INFO    : Start Service at port: 4000
[2020-02-03 19:58:50] [__main__] INFO    : file.filename: stopword.txt
[2020-02-03 19:58:50] [__main__] INFO    : file.filename: test1.txt
[2020-02-03 19:58:50] [__main__] INFO    : file.filename: SIMSUN.TTC
[2020-02-03 19:58:50] [jieba   ] DEBUG   : Building prefix dict from the default dictionary ...
[2020-02-03 19:58:50] [jieba   ] DEBUG   : Loading model from cache /var/folders/f5/t17jyxx977sc4_bqmtyncfq00000gn/T/jieba.cache
[2020-02-03 19:58:51] [jieba   ] DEBUG   : Loading model cost 0.717 seconds.
[2020-02-03 19:58:51] [jieba   ] DEBUG   : Prefix dict has been built successfully.
[2020-02-03 19:59:12] [tensorflow] WARNING : From /Users/kohosing/anaconda3/lib/python3.6/site-packages/tensorflow_core/python/ops/resource_variable_ops.py:1635: calling BaseResourceVariable.__init__ (from tensorflow.python.ops.resource_variable_ops) with constraint is deprecated and will be removed in a future version.
Instructions for updating:
If using Keras pass *_constraint arguments to layers.
[2020-02-03 19:59:12] [tensorflow] WARNING : From /Users/kohosing/Desktop/word_embedding/W2V.py:136: calling reduce_sum_v1 (from tensorflow.python.ops.math_ops) with keep_dims is deprecated and will be removed in a future version.
Instructions for updating:
keep_dims is deprecated, use keepdims instead
[2020-02-03 20:00:12] [__main__] INFO    : Start Service at port: 4000
[2020-02-03 20:00:55] [__main__] ERROR   : Directory /testing_2 already exists
[2020-02-03 20:01:06] [__main__] INFO    : file.filename: stopword.txt
[2020-02-03 20:01:06] [__main__] INFO    : file.filename: test1.txt
[2020-02-03 20:01:06] [__main__] INFO    : file.filename: SIMSUN.TTC
[2020-02-03 20:01:06] [jieba   ] DEBUG   : Building prefix dict from the default dictionary ...
[2020-02-03 20:01:06] [jieba   ] DEBUG   : Loading model from cache /var/folders/f5/t17jyxx977sc4_bqmtyncfq00000gn/T/jieba.cache
[2020-02-03 20:01:07] [jieba   ] DEBUG   : Loading model cost 0.663 seconds.
[2020-02-03 20:01:07] [jieba   ] DEBUG   : Prefix dict has been built successfully.
[2020-02-03 20:01:29] [tensorflow] WARNING : From /Users/kohosing/anaconda3/lib/python3.6/site-packages/tensorflow_core/python/ops/resource_variable_ops.py:1635: calling BaseResourceVariable.__init__ (from tensorflow.python.ops.resource_variable_ops) with constraint is deprecated and will be removed in a future version.
Instructions for updating:
If using Keras pass *_constraint arguments to layers.
[2020-02-03 20:01:29] [tensorflow] WARNING : From /Users/kohosing/Desktop/word_embedding/W2V.py:136: calling reduce_sum_v1 (from tensorflow.python.ops.math_ops) with keep_dims is deprecated and will be removed in a future version.
Instructions for updating:
keep_dims is deprecated, use keepdims instead
[2020-02-03 20:03:18] [__main__] INFO    : Start Service at port: 4000
[2020-02-03 20:04:23] [__main__] ERROR   : Directory /testing_3 already exists
[2020-02-03 20:06:12] [__main__] INFO    : Start Service at port: 4000
[2020-02-03 20:06:23] [__main__] INFO    : file.filename: stopword.txt
[2020-02-03 20:06:23] [__main__] INFO    : file.filename: test1.txt
[2020-02-03 20:06:23] [__main__] INFO    : file.filename: SIMSUN.TTC
[2020-02-03 20:06:23] [jieba   ] DEBUG   : Building prefix dict from the default dictionary ...
[2020-02-03 20:06:23] [jieba   ] DEBUG   : Loading model from cache /var/folders/f5/t17jyxx977sc4_bqmtyncfq00000gn/T/jieba.cache
[2020-02-03 20:06:24] [jieba   ] DEBUG   : Loading model cost 0.642 seconds.
[2020-02-03 20:06:24] [jieba   ] DEBUG   : Prefix dict has been built successfully.
[2020-02-03 20:06:46] [tensorflow] WARNING : From /Users/kohosing/anaconda3/lib/python3.6/site-packages/tensorflow_core/python/ops/resource_variable_ops.py:1635: calling BaseResourceVariable.__init__ (from tensorflow.python.ops.resource_variable_ops) with constraint is deprecated and will be removed in a future version.
Instructions for updating:
If using Keras pass *_constraint arguments to layers.
[2020-02-03 20:06:46] [tensorflow] WARNING : From /Users/kohosing/Desktop/word_embedding/W2V.py:136: calling reduce_sum_v1 (from tensorflow.python.ops.math_ops) with keep_dims is deprecated and will be removed in a future version.
Instructions for updating:
keep_dims is deprecated, use keepdims instead
[2020-02-03 20:09:27] [__main__] INFO    : file.filename: stopword.txt
[2020-02-03 20:09:27] [__main__] INFO    : file.filename: test1.txt
[2020-02-03 20:09:27] [__main__] INFO    : file.filename: SIMSUN.TTC
[2020-02-03 20:11:12] [__main__] INFO    : Start Service at port: 4000
[2020-02-03 20:11:25] [__main__] INFO    : file.filename: stopword.txt
[2020-02-03 20:11:25] [__main__] INFO    : file.filename: test1.txt
[2020-02-03 20:11:25] [__main__] INFO    : file.filename: SIMSUN.TTC
[2020-02-03 20:11:25] [jieba   ] DEBUG   : Building prefix dict from the default dictionary ...
[2020-02-03 20:11:25] [jieba   ] DEBUG   : Loading model from cache /var/folders/f5/t17jyxx977sc4_bqmtyncfq00000gn/T/jieba.cache
[2020-02-03 20:11:26] [jieba   ] DEBUG   : Loading model cost 0.710 seconds.
[2020-02-03 20:11:26] [jieba   ] DEBUG   : Prefix dict has been built successfully.
[2020-02-03 20:11:47] [tensorflow] WARNING : From /Users/kohosing/anaconda3/lib/python3.6/site-packages/tensorflow_core/python/ops/resource_variable_ops.py:1635: calling BaseResourceVariable.__init__ (from tensorflow.python.ops.resource_variable_ops) with constraint is deprecated and will be removed in a future version.
Instructions for updating:
If using Keras pass *_constraint arguments to layers.
[2020-02-03 20:11:47] [tensorflow] WARNING : From /Users/kohosing/Desktop/word_embedding/W2V.py:136: calling reduce_sum_v1 (from tensorflow.python.ops.math_ops) with keep_dims is deprecated and will be removed in a future version.
Instructions for updating:
keep_dims is deprecated, use keepdims instead
[2020-02-03 20:15:13] [__main__] INFO    : Start Service at port: 4000
[2020-02-03 20:15:18] [__main__] ERROR   : Directory /testing_0203 already exists
[2020-02-03 20:15:26] [__main__] INFO    : Start Service at port: 4000
[2020-02-03 20:15:31] [__main__] INFO    : file.filename: stopword.txt
[2020-02-03 20:15:31] [__main__] INFO    : file.filename: test1.txt
[2020-02-03 20:15:31] [__main__] INFO    : file.filename: SIMSUN.TTC
[2020-02-03 20:15:31] [jieba   ] DEBUG   : Building prefix dict from the default dictionary ...
[2020-02-03 20:15:31] [jieba   ] DEBUG   : Loading model from cache /var/folders/f5/t17jyxx977sc4_bqmtyncfq00000gn/T/jieba.cache
[2020-02-03 20:15:31] [jieba   ] DEBUG   : Loading model cost 0.598 seconds.
[2020-02-03 20:15:31] [jieba   ] DEBUG   : Prefix dict has been built successfully.
[2020-02-03 20:15:52] [tensorflow] WARNING : From /Users/kohosing/anaconda3/lib/python3.6/site-packages/tensorflow_core/python/ops/resource_variable_ops.py:1635: calling BaseResourceVariable.__init__ (from tensorflow.python.ops.resource_variable_ops) with constraint is deprecated and will be removed in a future version.
Instructions for updating:
If using Keras pass *_constraint arguments to layers.
[2020-02-03 20:15:53] [tensorflow] WARNING : From /Users/kohosing/Desktop/word_embedding/W2V.py:136: calling reduce_sum_v1 (from tensorflow.python.ops.math_ops) with keep_dims is deprecated and will be removed in a future version.
Instructions for updating:
keep_dims is deprecated, use keepdims instead
[2020-02-03 20:17:26] [__main__] INFO    : Start Service at port: 4000
[2020-02-03 20:18:14] [__main__] INFO    : Start Service at port: 4000
[2020-02-03 20:18:19] [__main__] INFO    : file.filename: stopword.txt
[2020-02-03 20:18:19] [__main__] INFO    : file.filename: test1.txt
[2020-02-03 20:18:20] [__main__] INFO    : file.filename: SIMSUN.TTC
[2020-02-03 20:18:20] [jieba   ] DEBUG   : Building prefix dict from the default dictionary ...
[2020-02-03 20:18:20] [jieba   ] DEBUG   : Loading model from cache /var/folders/f5/t17jyxx977sc4_bqmtyncfq00000gn/T/jieba.cache
[2020-02-03 20:18:20] [jieba   ] DEBUG   : Loading model cost 0.631 seconds.
[2020-02-03 20:18:20] [jieba   ] DEBUG   : Prefix dict has been built successfully.
[2020-02-03 20:18:41] [tensorflow] WARNING : From /Users/kohosing/anaconda3/lib/python3.6/site-packages/tensorflow_core/python/ops/resource_variable_ops.py:1635: calling BaseResourceVariable.__init__ (from tensorflow.python.ops.resource_variable_ops) with constraint is deprecated and will be removed in a future version.
Instructions for updating:
If using Keras pass *_constraint arguments to layers.
[2020-02-03 20:18:41] [tensorflow] WARNING : From /Users/kohosing/Desktop/word_embedding/W2V.py:136: calling reduce_sum_v1 (from tensorflow.python.ops.math_ops) with keep_dims is deprecated and will be removed in a future version.
Instructions for updating:
keep_dims is deprecated, use keepdims instead
[2020-02-03 20:22:34] [__main__] INFO    : Start Service at port: 4000
[2020-02-03 20:22:43] [__main__] ERROR   : Directory /testing_1212 already exists
[2020-02-03 20:22:53] [__main__] INFO    : file.filename: stopword.txt
[2020-02-03 20:22:53] [__main__] INFO    : file.filename: test1.txt
[2020-02-03 20:22:53] [__main__] INFO    : file.filename: SIMSUN.TTC
[2020-02-03 20:22:53] [jieba   ] DEBUG   : Building prefix dict from the default dictionary ...
[2020-02-03 20:22:53] [jieba   ] DEBUG   : Loading model from cache /var/folders/f5/t17jyxx977sc4_bqmtyncfq00000gn/T/jieba.cache
[2020-02-03 20:22:54] [jieba   ] DEBUG   : Loading model cost 0.608 seconds.
[2020-02-03 20:22:54] [jieba   ] DEBUG   : Prefix dict has been built successfully.
[2020-02-03 20:23:37] [tensorflow] WARNING : From /Users/kohosing/anaconda3/lib/python3.6/site-packages/tensorflow_core/python/ops/resource_variable_ops.py:1635: calling BaseResourceVariable.__init__ (from tensorflow.python.ops.resource_variable_ops) with constraint is deprecated and will be removed in a future version.
Instructions for updating:
If using Keras pass *_constraint arguments to layers.
[2020-02-03 20:23:38] [tensorflow] WARNING : From /Users/kohosing/Desktop/word_embedding/W2V.py:136: calling reduce_sum_v1 (from tensorflow.python.ops.math_ops) with keep_dims is deprecated and will be removed in a future version.
Instructions for updating:
keep_dims is deprecated, use keepdims instead
[2020-02-03 20:29:31] [__main__] INFO    : Start Service at port: 4000
[2020-02-03 20:29:40] [__main__] INFO    : file.filename: stopword.txt
[2020-02-03 20:29:40] [__main__] INFO    : file.filename: test1.txt
[2020-02-03 20:29:40] [__main__] INFO    : file.filename: SIMSUN.TTC
[2020-02-03 20:29:40] [jieba   ] DEBUG   : Building prefix dict from the default dictionary ...
[2020-02-03 20:29:40] [jieba   ] DEBUG   : Loading model from cache /var/folders/f5/t17jyxx977sc4_bqmtyncfq00000gn/T/jieba.cache
[2020-02-03 20:29:41] [jieba   ] DEBUG   : Loading model cost 0.683 seconds.
[2020-02-03 20:29:41] [jieba   ] DEBUG   : Prefix dict has been built successfully.
[2020-02-03 20:30:04] [tensorflow] WARNING : From /Users/kohosing/anaconda3/lib/python3.6/site-packages/tensorflow_core/python/ops/resource_variable_ops.py:1635: calling BaseResourceVariable.__init__ (from tensorflow.python.ops.resource_variable_ops) with constraint is deprecated and will be removed in a future version.
Instructions for updating:
If using Keras pass *_constraint arguments to layers.
[2020-02-03 20:30:04] [tensorflow] WARNING : From /Users/kohosing/Desktop/word_embedding/W2V.py:136: calling reduce_sum_v1 (from tensorflow.python.ops.math_ops) with keep_dims is deprecated and will be removed in a future version.
Instructions for updating:
keep_dims is deprecated, use keepdims instead
[2020-02-03 20:33:16] [__main__] INFO    : Start Service at port: 4000
[2020-02-03 20:34:25] [__main__] INFO    : file.filename: stopword.txt
[2020-02-03 20:34:25] [__main__] INFO    : file.filename: test1.txt
[2020-02-03 20:34:25] [__main__] INFO    : file.filename: SIMSUN.TTC
[2020-02-03 20:34:25] [jieba   ] DEBUG   : Building prefix dict from the default dictionary ...
[2020-02-03 20:34:25] [jieba   ] DEBUG   : Loading model from cache /var/folders/f5/t17jyxx977sc4_bqmtyncfq00000gn/T/jieba.cache
[2020-02-03 20:34:26] [jieba   ] DEBUG   : Loading model cost 0.715 seconds.
[2020-02-03 20:34:26] [jieba   ] DEBUG   : Prefix dict has been built successfully.
[2020-02-03 20:34:52] [tensorflow] WARNING : From /Users/kohosing/anaconda3/lib/python3.6/site-packages/tensorflow_core/python/ops/resource_variable_ops.py:1635: calling BaseResourceVariable.__init__ (from tensorflow.python.ops.resource_variable_ops) with constraint is deprecated and will be removed in a future version.
Instructions for updating:
If using Keras pass *_constraint arguments to layers.
[2020-02-03 20:34:52] [tensorflow] WARNING : From /Users/kohosing/Desktop/word_embedding/W2V.py:136: calling reduce_sum_v1 (from tensorflow.python.ops.math_ops) with keep_dims is deprecated and will be removed in a future version.
Instructions for updating:
keep_dims is deprecated, use keepdims instead
[2020-02-03 20:34:57] [__main__] INFO    : file.filename: stopword.txt
[2020-02-03 20:34:57] [__main__] INFO    : file.filename: test1.txt
[2020-02-03 20:34:57] [__main__] INFO    : file.filename: SIMSUN.TTC
[2020-02-03 20:35:38] [__main__] INFO    : file.filename: stopword.txt
[2020-02-03 20:35:38] [__main__] INFO    : file.filename: test1.txt
[2020-02-03 20:35:38] [__main__] INFO    : file.filename: SIMSUN.TTC
[2020-02-03 21:03:23] [__main__] INFO    : Start Service at port: 4000
[2020-02-03 21:03:45] [__main__] ERROR   : list index out of range
[2020-02-03 21:06:40] [__main__] INFO    : Start Service at port: 4000
[2020-02-03 21:06:54] [__main__] INFO    : file.filename: shorttest.txt
[2020-02-03 21:06:54] [__main__] ERROR   : list index out of range
[2020-02-03 21:07:40] [__main__] ERROR   : Directory /testing_test0203 already exists
[2020-02-03 21:07:51] [__main__] INFO    : Start Service at port: 4000
[2020-02-03 21:08:03] [__main__] INFO    : file.filename: stopword.txt
[2020-02-03 21:08:03] [__main__] INFO    : file.filename: shorttest.txt
[2020-02-03 21:08:03] [__main__] INFO    : file.filename: SIMSUN.TTC
[2020-02-03 21:08:03] [jieba   ] DEBUG   : Building prefix dict from the default dictionary ...
[2020-02-03 21:08:03] [jieba   ] DEBUG   : Loading model from cache /var/folders/f5/t17jyxx977sc4_bqmtyncfq00000gn/T/jieba.cache
[2020-02-03 21:08:04] [jieba   ] DEBUG   : Loading model cost 0.638 seconds.
[2020-02-03 21:08:04] [jieba   ] DEBUG   : Prefix dict has been built successfully.
[2020-02-03 21:11:02] [__main__] INFO    : Start Service at port: 4000
[2020-02-03 21:11:08] [__main__] INFO    : file.filename: stopword.txt
[2020-02-03 21:11:08] [__main__] INFO    : file.filename: shorttestwolfiscoming.txt
[2020-02-03 21:11:08] [__main__] INFO    : file.filename: SIMSUN.TTC
[2020-02-03 21:11:08] [jieba   ] DEBUG   : Building prefix dict from the default dictionary ...
[2020-02-03 21:11:08] [jieba   ] DEBUG   : Loading model from cache /var/folders/f5/t17jyxx977sc4_bqmtyncfq00000gn/T/jieba.cache
[2020-02-03 21:11:09] [jieba   ] DEBUG   : Loading model cost 0.678 seconds.
[2020-02-03 21:11:09] [jieba   ] DEBUG   : Prefix dict has been built successfully.
[2020-02-03 21:11:09] [tensorflow] WARNING : From /Users/kohosing/anaconda3/lib/python3.6/site-packages/tensorflow_core/python/ops/resource_variable_ops.py:1635: calling BaseResourceVariable.__init__ (from tensorflow.python.ops.resource_variable_ops) with constraint is deprecated and will be removed in a future version.
Instructions for updating:
If using Keras pass *_constraint arguments to layers.
[2020-02-03 21:11:09] [tensorflow] WARNING : From /Users/kohosing/Desktop/word-embedding/W2V.py:136: calling reduce_sum_v1 (from tensorflow.python.ops.math_ops) with keep_dims is deprecated and will be removed in a future version.
Instructions for updating:
keep_dims is deprecated, use keepdims instead
[2020-02-03 21:11:47] [__main__] ERROR   : Directory /test_0203 already exists
[2020-02-03 21:13:12] [__main__] INFO    : Start Service at port: 4000
[2020-02-03 21:13:19] [__main__] INFO    : file.filename: stopword.txt
[2020-02-03 21:13:19] [__main__] INFO    : file.filename: shorttest.txt
[2020-02-03 21:13:19] [__main__] INFO    : file.filename: SIMSUN.TTC
[2020-02-03 21:13:19] [jieba   ] DEBUG   : Building prefix dict from the default dictionary ...
[2020-02-03 21:13:19] [jieba   ] DEBUG   : Loading model from cache /var/folders/f5/t17jyxx977sc4_bqmtyncfq00000gn/T/jieba.cache
[2020-02-03 21:13:20] [jieba   ] DEBUG   : Loading model cost 0.689 seconds.
[2020-02-03 21:13:20] [jieba   ] DEBUG   : Prefix dict has been built successfully.
[2020-02-03 21:13:20] [tensorflow] WARNING : From /Users/kohosing/anaconda3/lib/python3.6/site-packages/tensorflow_core/python/ops/resource_variable_ops.py:1635: calling BaseResourceVariable.__init__ (from tensorflow.python.ops.resource_variable_ops) with constraint is deprecated and will be removed in a future version.
Instructions for updating:
If using Keras pass *_constraint arguments to layers.
[2020-02-03 21:13:20] [tensorflow] WARNING : From /Users/kohosing/Desktop/word-embedding/W2V.py:136: calling reduce_sum_v1 (from tensorflow.python.ops.math_ops) with keep_dims is deprecated and will be removed in a future version.
Instructions for updating:
keep_dims is deprecated, use keepdims instead
[2020-02-04 15:15:17] [__main__] INFO    : Start Service at port: 4000
[2020-02-04 15:16:36] [__main__] INFO    : Start Service at port: 4000
[2020-02-04 15:18:41] [__main__] INFO    : Start Service at port: 4000
[2020-02-04 15:18:49] [__main__] INFO    : file.filename: stopword.txt
[2020-02-04 15:18:49] [__main__] INFO    : file.filename: test1.txt
[2020-02-04 15:18:49] [jieba   ] DEBUG   : Building prefix dict from the default dictionary ...
[2020-02-04 15:18:50] [jieba   ] DEBUG   : Dumping model to file cache /var/folders/f5/t17jyxx977sc4_bqmtyncfq00000gn/T/jieba.cache
[2020-02-04 15:18:50] [jieba   ] DEBUG   : Loading model cost 0.885 seconds.
[2020-02-04 15:18:50] [jieba   ] DEBUG   : Prefix dict has been built successfully.
[2020-02-04 15:19:12] [__main__] ERROR   : '小明'
[2020-02-04 15:20:51] [__main__] INFO    : Start Service at port: 4000
[2020-02-04 15:21:05] [__main__] INFO    : file.filename: stopword.txt
[2020-02-04 15:21:05] [__main__] INFO    : file.filename: test1.txt
[2020-02-04 15:21:05] [jieba   ] DEBUG   : Building prefix dict from the default dictionary ...
[2020-02-04 15:21:05] [jieba   ] DEBUG   : Loading model from cache /var/folders/f5/t17jyxx977sc4_bqmtyncfq00000gn/T/jieba.cache
[2020-02-04 15:21:05] [jieba   ] DEBUG   : Loading model cost 0.653 seconds.
[2020-02-04 15:21:05] [jieba   ] DEBUG   : Prefix dict has been built successfully.
[2020-02-04 15:21:27] [tensorflow] WARNING : From /Users/kohosing/anaconda3/lib/python3.6/site-packages/tensorflow_core/python/ops/resource_variable_ops.py:1635: calling BaseResourceVariable.__init__ (from tensorflow.python.ops.resource_variable_ops) with constraint is deprecated and will be removed in a future version.
Instructions for updating:
If using Keras pass *_constraint arguments to layers.
[2020-02-04 15:21:27] [tensorflow] WARNING : From /Users/kohosing/Desktop/word-embedding/W2V.py:136: calling reduce_sum_v1 (from tensorflow.python.ops.math_ops) with keep_dims is deprecated and will be removed in a future version.
Instructions for updating:
keep_dims is deprecated, use keepdims instead
[2020-02-04 15:21:35] [__main__] ERROR   : [Errno 2] No such file or directory: '/SIMSUN.TTC'
[2020-02-04 15:23:13] [__main__] INFO    : Start Service at port: 4000
[2020-02-04 15:23:23] [__main__] INFO    : file.filename: stopword.txt
[2020-02-04 15:23:23] [__main__] INFO    : file.filename: test1.txt
[2020-02-04 15:23:23] [jieba   ] DEBUG   : Building prefix dict from the default dictionary ...
[2020-02-04 15:23:23] [jieba   ] DEBUG   : Loading model from cache /var/folders/f5/t17jyxx977sc4_bqmtyncfq00000gn/T/jieba.cache
[2020-02-04 15:23:23] [jieba   ] DEBUG   : Loading model cost 0.675 seconds.
[2020-02-04 15:23:23] [jieba   ] DEBUG   : Prefix dict has been built successfully.
[2020-02-04 15:23:46] [tensorflow] WARNING : From /Users/kohosing/anaconda3/lib/python3.6/site-packages/tensorflow_core/python/ops/resource_variable_ops.py:1635: calling BaseResourceVariable.__init__ (from tensorflow.python.ops.resource_variable_ops) with constraint is deprecated and will be removed in a future version.
Instructions for updating:
If using Keras pass *_constraint arguments to layers.
[2020-02-04 15:23:46] [tensorflow] WARNING : From /Users/kohosing/Desktop/word-embedding/W2V.py:136: calling reduce_sum_v1 (from tensorflow.python.ops.math_ops) with keep_dims is deprecated and will be removed in a future version.
Instructions for updating:
keep_dims is deprecated, use keepdims instead
[2020-02-04 15:24:59] [__main__] ERROR   : 405 Method Not Allowed: The method is not allowed for the requested URL.
[2020-02-04 15:25:16] [__main__] ERROR   : 405 Method Not Allowed: The method is not allowed for the requested URL.
[2020-02-04 15:25:31] [__main__] ERROR   : 405 Method Not Allowed: The method is not allowed for the requested URL.
[2020-02-04 15:26:39] [__main__] ERROR   : 'status_default'
[2020-02-04 15:26:45] [__main__] ERROR   : 'status_default'
[2020-02-04 15:27:18] [__main__] ERROR   : 'status_default'
[2020-02-04 15:27:24] [__main__] ERROR   : 'status_default'
[2020-02-04 15:28:40] [__main__] ERROR   : 'status_test0204_2'
[2020-02-04 15:30:10] [__main__] INFO    : Start Service at port: 4000
[2020-02-04 15:31:53] [__main__] INFO    : Start Service at port: 4000
[2020-02-04 15:31:56] [__main__] ERROR   : name 'walk' is not defined
[2020-02-04 15:32:12] [__main__] INFO    : Start Service at port: 4000
[2020-02-04 15:33:55] [__main__] INFO    : Start Service at port: 4000
[2020-02-04 15:36:15] [__main__] INFO    : Start Service at port: 4000
[2020-02-04 15:39:36] [__main__] INFO    : Start Service at port: 4000
[2020-02-04 15:39:41] [__main__] ERROR   : 'dict' object has no attribute 'append'
[2020-02-04 15:40:13] [__main__] INFO    : Start Service at port: 4000
[2020-02-04 15:40:19] [__main__] ERROR   : tuple indices must be integers or slices, not str
[2020-02-04 15:41:47] [__main__] INFO    : Start Service at port: 4000
[2020-02-04 15:42:31] [__main__] INFO    : Start Service at port: 4000
[2020-02-04 15:43:08] [__main__] INFO    : Start Service at port: 4000
[2020-02-04 15:45:53] [__main__] INFO    : Start Service at port: 4000
[2020-02-04 15:45:53] [__main__] ERROR   : name 'directory' is not defined
[2020-02-04 15:45:54] [__main__] ERROR   : name 'directory' is not defined
[2020-02-04 15:46:22] [__main__] INFO    : Start Service at port: 4000
[2020-02-04 15:46:22] [__main__] ERROR   : Object of type 'generator' is not JSON serializable
[2020-02-04 15:47:04] [__main__] INFO    : Start Service at port: 4000
[2020-02-04 15:49:05] [__main__] INFO    : Start Service at port: 4000
[2020-02-04 15:51:04] [__main__] INFO    : Start Service at port: 4000
[2020-02-04 15:51:04] [__main__] ERROR   : name 'folder' is not defined
[2020-02-04 15:51:05] [__main__] ERROR   : name 'folder' is not defined
[2020-02-04 15:51:28] [__main__] INFO    : Start Service at port: 4000
[2020-02-04 15:57:14] [__main__] INFO    : Start Service at port: 4000
[2020-02-04 15:57:31] [__main__] ERROR   : 405 Method Not Allowed: The method is not allowed for the requested URL.
[2020-02-04 15:57:38] [__main__] ERROR   : 'NoneType' object has no attribute 'filename'
[2020-02-04 16:01:39] [__main__] INFO    : Start Service at port: 4000
[2020-02-04 16:01:43] [__main__] ERROR   : 'NoneType' object has no attribute 'filename'
[2020-02-04 16:02:06] [__main__] INFO    : file.filename: stopword.txt
[2020-02-04 16:02:06] [__main__] INFO    : file.filename: test1.txt
[2020-02-04 16:02:06] [jieba   ] DEBUG   : Building prefix dict from the default dictionary ...
[2020-02-04 16:02:06] [jieba   ] DEBUG   : Loading model from cache /var/folders/f5/t17jyxx977sc4_bqmtyncfq00000gn/T/jieba.cache
[2020-02-04 16:02:06] [jieba   ] DEBUG   : Loading model cost 0.648 seconds.
[2020-02-04 16:02:06] [jieba   ] DEBUG   : Prefix dict has been built successfully.
[2020-02-04 16:02:29] [tensorflow] WARNING : From /Users/kohosing/anaconda3/lib/python3.6/site-packages/tensorflow_core/python/ops/resource_variable_ops.py:1635: calling BaseResourceVariable.__init__ (from tensorflow.python.ops.resource_variable_ops) with constraint is deprecated and will be removed in a future version.
Instructions for updating:
If using Keras pass *_constraint arguments to layers.
[2020-02-04 16:02:29] [tensorflow] WARNING : From /Users/kohosing/Desktop/word-embedding/W2V.py:136: calling reduce_sum_v1 (from tensorflow.python.ops.math_ops) with keep_dims is deprecated and will be removed in a future version.
Instructions for updating:
keep_dims is deprecated, use keepdims instead
[2020-02-04 16:02:40] [__main__] ERROR   : [Errno 2] No such file or directory: 'SIMSUN.TTC'
[2020-02-04 16:03:55] [__main__] INFO    : Start Service at port: 4000
[2020-02-04 16:03:58] [__main__] INFO    : file.filename: stopword.txt
[2020-02-04 16:03:58] [__main__] INFO    : file.filename: test1.txt
[2020-02-04 16:03:58] [jieba   ] DEBUG   : Building prefix dict from the default dictionary ...
[2020-02-04 16:03:58] [jieba   ] DEBUG   : Loading model from cache /var/folders/f5/t17jyxx977sc4_bqmtyncfq00000gn/T/jieba.cache
[2020-02-04 16:03:59] [jieba   ] DEBUG   : Loading model cost 0.691 seconds.
[2020-02-04 16:03:59] [jieba   ] DEBUG   : Prefix dict has been built successfully.
[2020-02-04 16:04:22] [tensorflow] WARNING : From /Users/kohosing/anaconda3/lib/python3.6/site-packages/tensorflow_core/python/ops/resource_variable_ops.py:1635: calling BaseResourceVariable.__init__ (from tensorflow.python.ops.resource_variable_ops) with constraint is deprecated and will be removed in a future version.
Instructions for updating:
If using Keras pass *_constraint arguments to layers.
[2020-02-04 16:04:22] [tensorflow] WARNING : From /Users/kohosing/Desktop/word-embedding/W2V.py:136: calling reduce_sum_v1 (from tensorflow.python.ops.math_ops) with keep_dims is deprecated and will be removed in a future version.
Instructions for updating:
keep_dims is deprecated, use keepdims instead
[2020-02-04 16:07:42] [__main__] INFO    : Start Service at port: 4000
[2020-02-04 16:07:57] [__main__] ERROR   : 'status_default'
[2020-02-04 16:08:31] [__main__] ERROR   : 'status_test0204_1'
[2020-02-04 16:09:02] [__main__] ERROR   : 'status_test0204_1'
[2020-02-04 16:09:03] [__main__] ERROR   : 'status_test0204_1'
[2020-02-04 16:10:19] [__main__] INFO    : Start Service at port: 4000
[2020-02-04 16:10:22] [__main__] ERROR   : 'status_test0204_1'
[2020-02-04 16:10:45] [__main__] INFO    : Start Service at port: 4000
[2020-02-04 16:10:49] [__main__] ERROR   : 'status_test0204_1'
[2020-02-04 16:11:28] [__main__] ERROR   : 'status_test0204_1'
[2020-02-04 16:12:42] [__main__] INFO    : Start Service at port: 4000
[2020-02-04 16:13:17] [__main__] INFO    : Start Service at port: 4000
[2020-02-04 16:13:22] [__main__] ERROR   : 'status_test0204_1'
[2020-02-04 16:13:49] [__main__] INFO    : Start Service at port: 4000
[2020-02-04 16:13:51] [__main__] ERROR   : 'status_test0204_1'
[2020-02-04 16:13:52] [__main__] ERROR   : 'status_test0204_1'
[2020-02-04 16:14:41] [__main__] INFO    : Start Service at port: 4000
[2020-02-04 16:14:44] [__main__] ERROR   : 'status_test0204_1'
[2020-02-04 16:15:26] [__main__] ERROR   : 'status_test0204_1'
[2020-02-04 16:16:06] [__main__] INFO    : Start Service at port: 4000
[2020-02-04 16:16:07] [__main__] ERROR   : 'status_test0204_1'
[2020-02-04 16:16:52] [__main__] INFO    : Start Service at port: 4000
[2020-02-04 16:17:06] [__main__] ERROR   : 405 Method Not Allowed: The method is not allowed for the requested URL.
[2020-02-04 16:17:14] [__main__] INFO    : file.filename: stopword.txt
[2020-02-04 16:17:14] [__main__] INFO    : file.filename: test1.txt
[2020-02-04 16:17:14] [jieba   ] DEBUG   : Building prefix dict from the default dictionary ...
[2020-02-04 16:17:14] [jieba   ] DEBUG   : Loading model from cache /var/folders/f5/t17jyxx977sc4_bqmtyncfq00000gn/T/jieba.cache
[2020-02-04 16:17:15] [jieba   ] DEBUG   : Loading model cost 0.637 seconds.
[2020-02-04 16:17:15] [jieba   ] DEBUG   : Prefix dict has been built successfully.
[2020-02-04 16:17:38] [tensorflow] WARNING : From /Users/kohosing/anaconda3/lib/python3.6/site-packages/tensorflow_core/python/ops/resource_variable_ops.py:1635: calling BaseResourceVariable.__init__ (from tensorflow.python.ops.resource_variable_ops) with constraint is deprecated and will be removed in a future version.
Instructions for updating:
If using Keras pass *_constraint arguments to layers.
[2020-02-04 16:17:38] [tensorflow] WARNING : From /Users/kohosing/Desktop/word-embedding/W2V.py:136: calling reduce_sum_v1 (from tensorflow.python.ops.math_ops) with keep_dims is deprecated and will be removed in a future version.
Instructions for updating:
keep_dims is deprecated, use keepdims instead
[2020-02-04 16:20:06] [__main__] ERROR   : 'status_test0204_12'
[2020-02-04 16:21:07] [__main__] INFO    : Start Service at port: 4000
[2020-02-04 16:21:09] [word_embed] ERROR   : Exception on /get_result [GET]
Traceback (most recent call last):
  File "/Users/kohosing/anaconda3/lib/python3.6/site-packages/flask/app.py", line 2446, in wsgi_app
    response = self.full_dispatch_request()
  File "/Users/kohosing/anaconda3/lib/python3.6/site-packages/flask/app.py", line 1952, in full_dispatch_request
    return self.finalize_request(rv)
  File "/Users/kohosing/anaconda3/lib/python3.6/site-packages/flask/app.py", line 1967, in finalize_request
    response = self.make_response(rv)
  File "/Users/kohosing/anaconda3/lib/python3.6/site-packages/flask/app.py", line 2089, in make_response
    "The view function did not return a valid response tuple."
TypeError: The view function did not return a valid response tuple. The tuple must have the form (body, status, headers), (body, status), or (body, headers).
[2020-02-04 16:21:09] [__main__] ERROR   : 500 Internal Server Error: The server encountered an internal error and was unable to complete your request. Either the server is overloaded or there is an error in the application.
[2020-02-04 16:21:10] [word_embed] ERROR   : Exception on /get_result [GET]
Traceback (most recent call last):
  File "/Users/kohosing/anaconda3/lib/python3.6/site-packages/flask/app.py", line 2446, in wsgi_app
    response = self.full_dispatch_request()
  File "/Users/kohosing/anaconda3/lib/python3.6/site-packages/flask/app.py", line 1952, in full_dispatch_request
    return self.finalize_request(rv)
  File "/Users/kohosing/anaconda3/lib/python3.6/site-packages/flask/app.py", line 1967, in finalize_request
    response = self.make_response(rv)
  File "/Users/kohosing/anaconda3/lib/python3.6/site-packages/flask/app.py", line 2089, in make_response
    "The view function did not return a valid response tuple."
TypeError: The view function did not return a valid response tuple. The tuple must have the form (body, status, headers), (body, status), or (body, headers).
[2020-02-04 16:21:10] [__main__] ERROR   : 500 Internal Server Error: The server encountered an internal error and was unable to complete your request. Either the server is overloaded or there is an error in the application.
[2020-02-04 16:21:21] [word_embed] ERROR   : Exception on /get_result [GET]
Traceback (most recent call last):
  File "/Users/kohosing/anaconda3/lib/python3.6/site-packages/flask/app.py", line 2446, in wsgi_app
    response = self.full_dispatch_request()
  File "/Users/kohosing/anaconda3/lib/python3.6/site-packages/flask/app.py", line 1952, in full_dispatch_request
    return self.finalize_request(rv)
  File "/Users/kohosing/anaconda3/lib/python3.6/site-packages/flask/app.py", line 1967, in finalize_request
    response = self.make_response(rv)
  File "/Users/kohosing/anaconda3/lib/python3.6/site-packages/flask/app.py", line 2089, in make_response
    "The view function did not return a valid response tuple."
TypeError: The view function did not return a valid response tuple. The tuple must have the form (body, status, headers), (body, status), or (body, headers).
[2020-02-04 16:21:21] [__main__] ERROR   : 500 Internal Server Error: The server encountered an internal error and was unable to complete your request. Either the server is overloaded or there is an error in the application.
[2020-02-04 16:21:24] [word_embed] ERROR   : Exception on /get_result [GET]
Traceback (most recent call last):
  File "/Users/kohosing/anaconda3/lib/python3.6/site-packages/flask/app.py", line 2446, in wsgi_app
    response = self.full_dispatch_request()
  File "/Users/kohosing/anaconda3/lib/python3.6/site-packages/flask/app.py", line 1952, in full_dispatch_request
    return self.finalize_request(rv)
  File "/Users/kohosing/anaconda3/lib/python3.6/site-packages/flask/app.py", line 1967, in finalize_request
    response = self.make_response(rv)
  File "/Users/kohosing/anaconda3/lib/python3.6/site-packages/flask/app.py", line 2089, in make_response
    "The view function did not return a valid response tuple."
TypeError: The view function did not return a valid response tuple. The tuple must have the form (body, status, headers), (body, status), or (body, headers).
[2020-02-04 16:21:24] [__main__] ERROR   : 500 Internal Server Error: The server encountered an internal error and was unable to complete your request. Either the server is overloaded or there is an error in the application.
[2020-02-04 16:21:50] [__main__] INFO    : Start Service at port: 4000
[2020-02-04 16:22:17] [__main__] INFO    : Start Service at port: 4000
[2020-02-04 16:24:02] [__main__] INFO    : Start Service at port: 4000
[2020-02-04 16:24:45] [__main__] INFO    : Start Service at port: 4000
[2020-02-04 16:25:04] [__main__] INFO    : file.filename: stopword.txt
[2020-02-04 16:25:04] [__main__] INFO    : file.filename: test1.txt
[2020-02-04 16:25:04] [jieba   ] DEBUG   : Building prefix dict from the default dictionary ...
[2020-02-04 16:25:04] [jieba   ] DEBUG   : Loading model from cache /var/folders/f5/t17jyxx977sc4_bqmtyncfq00000gn/T/jieba.cache
[2020-02-04 16:25:05] [jieba   ] DEBUG   : Loading model cost 0.639 seconds.
[2020-02-04 16:25:05] [jieba   ] DEBUG   : Prefix dict has been built successfully.
[2020-02-04 16:25:29] [tensorflow] WARNING : From /Users/kohosing/anaconda3/lib/python3.6/site-packages/tensorflow_core/python/ops/resource_variable_ops.py:1635: calling BaseResourceVariable.__init__ (from tensorflow.python.ops.resource_variable_ops) with constraint is deprecated and will be removed in a future version.
Instructions for updating:
If using Keras pass *_constraint arguments to layers.
[2020-02-04 16:25:29] [tensorflow] WARNING : From /Users/kohosing/Desktop/word-embedding/W2V.py:136: calling reduce_sum_v1 (from tensorflow.python.ops.math_ops) with keep_dims is deprecated and will be removed in a future version.
Instructions for updating:
keep_dims is deprecated, use keepdims instead
[2020-02-04 16:26:13] [__main__] INFO    : Start Service at port: 4000
[2020-02-04 16:26:38] [__main__] ERROR   : 405 Method Not Allowed: The method is not allowed for the requested URL.
[2020-02-04 16:26:46] [__main__] INFO    : file.filename: stopword.txt
[2020-02-04 16:26:46] [__main__] INFO    : file.filename: test1.txt
[2020-02-04 16:26:46] [jieba   ] DEBUG   : Building prefix dict from the default dictionary ...
[2020-02-04 16:26:46] [jieba   ] DEBUG   : Loading model from cache /var/folders/f5/t17jyxx977sc4_bqmtyncfq00000gn/T/jieba.cache
[2020-02-04 16:26:47] [jieba   ] DEBUG   : Loading model cost 0.800 seconds.
[2020-02-04 16:26:47] [jieba   ] DEBUG   : Prefix dict has been built successfully.
[2020-02-04 16:27:02] [__main__] ERROR   : 405 Method Not Allowed: The method is not allowed for the requested URL.
[2020-02-04 16:27:12] [tensorflow] WARNING : From /Users/kohosing/anaconda3/lib/python3.6/site-packages/tensorflow_core/python/ops/resource_variable_ops.py:1635: calling BaseResourceVariable.__init__ (from tensorflow.python.ops.resource_variable_ops) with constraint is deprecated and will be removed in a future version.
Instructions for updating:
If using Keras pass *_constraint arguments to layers.
[2020-02-04 16:27:12] [tensorflow] WARNING : From /Users/kohosing/Desktop/word-embedding/W2V.py:136: calling reduce_sum_v1 (from tensorflow.python.ops.math_ops) with keep_dims is deprecated and will be removed in a future version.
Instructions for updating:
keep_dims is deprecated, use keepdims instead
[2020-02-04 16:27:58] [__main__] INFO    : Start Service at port: 4000
[2020-02-04 16:50:57] [__main__] INFO    : Start Service at port: 4000
[2020-02-04 16:51:16] [__main__] ERROR   : 405 Method Not Allowed: The method is not allowed for the requested URL.
[2020-02-04 16:51:21] [__main__] INFO    : file.filename: stopword.txt
[2020-02-04 16:51:21] [__main__] INFO    : file.filename: test1.txt
[2020-02-04 16:51:21] [__main__] ERROR   : File is not a zip file
[2020-02-04 16:51:49] [__main__] INFO    : file.filename: stopword.txt
[2020-02-04 16:51:49] [__main__] INFO    : file.filename: text_file.txt.zip
[2020-02-04 16:51:49] [__main__] ERROR   : "There is no item named '/' in the archive"
[2020-02-04 16:54:06] [__main__] INFO    : Start Service at port: 4000
[2020-02-04 16:54:10] [__main__] INFO    : file.filename: stopword.txt
[2020-02-04 16:54:10] [__main__] INFO    : file.filename: text_file.txt.zip
[2020-02-04 16:54:10] [__main__] ERROR   : "There is no item named 't' in the archive"
[2020-02-04 16:55:34] [__main__] INFO    : Start Service at port: 4000
[2020-02-04 16:56:24] [__main__] INFO    : file.filename: stopword.txt
[2020-02-04 16:56:24] [__main__] INFO    : file.filename: text_file.txt.zip
[2020-02-04 16:56:24] [__main__] ERROR   : "There is no item named 't' in the archive"
[2020-02-04 16:59:19] [__main__] INFO    : Start Service at port: 4000
[2020-02-04 17:00:26] [__main__] INFO    : file.filename: stopword.txt
[2020-02-04 17:00:26] [__main__] INFO    : file.filename: text_file.txt.zip
[2020-02-04 17:00:26] [__main__] ERROR   : "There is no item named 't' in the archive"
[2020-02-04 18:47:48] [__main__] INFO    : Start Service at port: 4000
[2020-02-04 18:50:34] [__main__] INFO    : Start Service at port: 4000
[2020-02-04 18:52:02] [__main__] INFO    : file.filename: stopword.txt
[2020-02-04 18:52:02] [__main__] INFO    : file.filename: test1.txt
[2020-02-04 18:52:02] [jieba   ] DEBUG   : Building prefix dict from the default dictionary ...
[2020-02-04 18:52:02] [jieba   ] DEBUG   : Loading model from cache /var/folders/f5/t17jyxx977sc4_bqmtyncfq00000gn/T/jieba.cache
[2020-02-04 18:52:03] [jieba   ] DEBUG   : Loading model cost 0.667 seconds.
[2020-02-04 18:52:03] [jieba   ] DEBUG   : Prefix dict has been built successfully.
[2020-02-04 18:52:18] [__main__] INFO    : Start Service at port: 4000
[2020-02-04 18:52:38] [__main__] ERROR   : 405 Method Not Allowed: The method is not allowed for the requested URL.
[2020-02-04 18:52:41] [__main__] ERROR   : 405 Method Not Allowed: The method is not allowed for the requested URL.
[2020-02-05 01:49:33] [__main__] INFO    : Start Service at port: 4000
[2020-02-05 01:51:49] [__main__] INFO    : Start Service at port: 4000
[2020-02-05 01:53:02] [__main__] ERROR   : error: 404 Not Found: The requested URL was not found on the server. If you entered the URL manually please check your spelling and try again.
[2020-02-05 01:53:57] [__main__] ERROR   : 405 Method Not Allowed: The method is not allowed for the requested URL.
[2020-02-05 01:54:27] [__main__] INFO    : file.filename: stopword.txt
[2020-02-05 01:54:27] [__main__] INFO    : file.filename: test1.txt
[2020-02-05 01:56:34] [__main__] INFO    : file.filename: stopword.txt
[2020-02-05 01:56:34] [__main__] INFO    : file.filename: tt.zip
[2020-02-05 01:58:11] [__main__] INFO    : file.filename: stopword.txt
[2020-02-05 01:58:11] [__main__] INFO    : file.filename: tett.zip
[2020-02-05 01:59:02] [__main__] ERROR   : Directory /test020_3 already exists
[2020-02-05 01:59:09] [__main__] INFO    : file.filename: stopword.txt
[2020-02-05 01:59:09] [__main__] INFO    : file.filename: test1.txt.zip
[2020-02-05 02:00:57] [__main__] INFO    : Start Service at port: 4000
[2020-02-05 02:00:58] [__main__] ERROR   : error: 404 Not Found: The requested URL was not found on the server. If you entered the URL manually please check your spelling and try again.
[2020-02-05 02:01:19] [__main__] INFO    : file.filename: stopword.txt
[2020-02-05 02:01:19] [__main__] INFO    : file.filename: test1.txt.zip
[2020-02-05 02:01:20] [__main__] ERROR   : [Errno 2] No such file or directory: 'train_data/test_temp1/text_file.txt'
[2020-02-05 02:02:32] [__main__] INFO    : Start Service at port: 4000
[2020-02-05 02:02:52] [__main__] ERROR   : Directory /test_temp1 already exists
[2020-02-05 02:02:58] [__main__] INFO    : file.filename: stopword.txt
[2020-02-05 02:02:58] [__main__] INFO    : file.filename: test1.txt.zip
[2020-02-05 02:02:58] [jieba   ] DEBUG   : Building prefix dict from the default dictionary ...
[2020-02-05 02:02:58] [jieba   ] DEBUG   : Loading model from cache /var/folders/f5/t17jyxx977sc4_bqmtyncfq00000gn/T/jieba.cache
[2020-02-05 02:02:59] [jieba   ] DEBUG   : Loading model cost 0.719 seconds.
[2020-02-05 02:02:59] [jieba   ] DEBUG   : Prefix dict has been built successfully.
[2020-02-05 02:03:24] [tensorflow] WARNING : From /Users/kohosing/anaconda3/lib/python3.6/site-packages/tensorflow_core/python/ops/resource_variable_ops.py:1635: calling BaseResourceVariable.__init__ (from tensorflow.python.ops.resource_variable_ops) with constraint is deprecated and will be removed in a future version.
Instructions for updating:
If using Keras pass *_constraint arguments to layers.
[2020-02-05 02:03:24] [tensorflow] WARNING : From /Users/kohosing/Desktop/word-embedding/W2V.py:136: calling reduce_sum_v1 (from tensorflow.python.ops.math_ops) with keep_dims is deprecated and will be removed in a future version.
Instructions for updating:
keep_dims is deprecated, use keepdims instead
[2020-02-05 02:06:38] [__main__] INFO    : file.filename: stopword.txt
[2020-02-05 02:06:38] [__main__] INFO    : file.filename: test1.txt
[2020-02-05 02:10:42] [__main__] ERROR   : error: 404 Not Found: The requested URL was not found on the server. If you entered the URL manually please check your spelling and try again.
[2020-02-05 15:53:22] [__main__] INFO    : Start Service at port: 4000
[2020-02-05 15:54:21] [__main__] ERROR   : error: 404 Not Found: The requested URL was not found on the server. If you entered the URL manually please check your spelling and try again.
[2020-02-05 15:57:52] [__main__] ERROR   : 405 Method Not Allowed: The method is not allowed for the requested URL.
[2020-02-05 15:57:57] [__main__] INFO    : file.filename: stopword.txt
[2020-02-05 15:57:57] [__main__] INFO    : file.filename: test1.txt
[2020-02-05 15:57:57] [jieba   ] DEBUG   : Building prefix dict from the default dictionary ...
[2020-02-05 15:57:57] [jieba   ] DEBUG   : Dumping model to file cache /var/folders/f5/t17jyxx977sc4_bqmtyncfq00000gn/T/jieba.cache
[2020-02-05 15:57:57] [jieba   ] DEBUG   : Loading model cost 0.836 seconds.
[2020-02-05 15:57:57] [jieba   ] DEBUG   : Prefix dict has been built successfully.
[2020-02-05 15:58:22] [tensorflow] WARNING : From /Users/kohosing/anaconda3/lib/python3.6/site-packages/tensorflow_core/python/ops/resource_variable_ops.py:1635: calling BaseResourceVariable.__init__ (from tensorflow.python.ops.resource_variable_ops) with constraint is deprecated and will be removed in a future version.
Instructions for updating:
If using Keras pass *_constraint arguments to layers.
[2020-02-05 15:58:22] [tensorflow] WARNING : From /Users/kohosing/Desktop/fd_git/word_embedding/W2V.py:136: calling reduce_sum_v1 (from tensorflow.python.ops.math_ops) with keep_dims is deprecated and will be removed in a future version.
Instructions for updating:
keep_dims is deprecated, use keepdims instead
[2020-02-05 15:59:07] [__main__] ERROR   : 405 Method Not Allowed: The method is not allowed for the requested URL.
[2020-02-06 16:49:54] [__main__] INFO    : Start Service at port: 4000
[2020-02-06 16:50:11] [__main__] ERROR   : error: 404 Not Found: The requested URL was not found on the server. If you entered the URL manually please check your spelling and try again.
[2020-02-06 16:50:11] [__main__] ERROR   : error: 404 Not Found: The requested URL was not found on the server. If you entered the URL manually please check your spelling and try again.
